…
Let’s start with a for loop.

``` r
output = vector("list", length = 100)

for (i in 1:100){
  
  output[[i]] = sim_mean_sd(sample_size = 30)
  
}

bind_rows(output)
```

    ## # A tibble: 100 x 2
    ##     mean    sd
    ##    <dbl> <dbl>
    ##  1  2.35  4.45
    ##  2  3.51  3.97
    ##  3  2.44  3.63
    ##  4  4.25  3.63
    ##  5  3.08  4.43
    ##  6  1.73  4.22
    ##  7  1.89  4.53
    ##  8  2.16  3.97
    ##  9  3.23  3.49
    ## 10  2.81  3.47
    ## # … with 90 more rows
…
